[gd_scene load_steps=3 format=3 uid="uid://dccdtk4cgbc7r"]

[ext_resource type="Script" path="res://ui_elements/splash/SplashSequence.gd" id="1_k1i4y"]
[ext_resource type="Texture2D" uid="uid://cvjpd2kubagrl" path="res://icon.png" id="2_mseog"]

[node name="SplashSequence" type="Control"]
anchor_right = 1.0
anchor_bottom = 1.0
offset_left = 1.0
offset_right = 1.0
script = ExtResource("1_k1i4y")
images = [ExtResource("2_mseog"), ExtResource("2_mseog")]
